Chapter 8 Basic plot with R | 보건학데이터과학 실습 with R
…
8.2.5 scatter plot of summary stat

Now I want measure the percent of '6 month or more' response according to age

covid %>%
  group_by(age) %>%
  count(Q6==10)     # What dose `TRUE` means

## # A tibble: 99 × 3
## # Groups:   age [50]
##      age `Q6 == 10`     n
##    <dbl> <lgl>      <int>
##  1    20 FALSE          6
##  2    20 TRUE           4
##  3    21 FALSE          5
##  4    21 TRUE           2
##  5    22 FALSE          2
##  6    22 TRUE           5
##  7    23 FALSE         13
##  8    23 TRUE          12
##  9    24 FALSE         12
## 10    24 TRUE          11
## # … with 89 more rows

TRUE in column of Q6==10 means that participant responded as ‘6 month or more,’ and the n means number of count. I want estimate proportion prob as n/sum(n)

covid %>%
  group_by(age) %>%
  count(Q6==10) %>%
  mutate(prob = n/sum(n)*100) 

## # A tibble: 99 × 4
## # Groups:   age [50]
##      age `Q6 == 10`     n  prob
##    <dbl> <lgl>      <int> <dbl>
##  1    20 FALSE          6  60  
##  2    20 TRUE           4  40  
##  3    21 FALSE          5  71.4
##  4    21 TRUE           2  28.6
##  5    22 FALSE          2  28.6
##  6    22 TRUE           5  71.4
##  7    23 FALSE         13  52  
##  8    23 TRUE          12  48  
##  9    24 FALSE         12  52.2
## 10    24 TRUE          11  47.8
## # … with 89 more rows
…
