Chapter 5 data transforms | 보건학데이터과학 실습 with R
…
## # A tibble: 5 × 5
##      ID AS06        HH01 HH02_01 HH02_01_A
##   <dbl> <chr>      <dbl>   <dbl>     <dbl>
## 1 24825 서울특별시     3       1         1
## 2 10743 서울특별시     2       1         1
## 3 10744 서울특별시     2       1         2
## 4 24826 서울특별시     1       1         2
## 5 24827 서울특별시     1       1         1

코드북도 살펴보죠

book 

## # A tibble: 448 × 4
##    codes        Labels        Storage     NAs
##    <chr>        <chr>         <chr>     <dbl>
##  1 ID           <NA>          double        0
##  2 AS06         SQ5. 지역     character     0
##  3 HH01         가구원 수     double        0
##  4 HH02_01      가구원번호    double        0
##  5 HH02_01_A    가주구_성별   double        0
##  6 HH02_01_B    가구주_생년   double        0
##  7 HH02_01_C    가구주 관계   double        0
##  8 HH02_01_D    가구주_경활   double        0
##  9 HH02_01_D_01 무급가구내/외 double    49671
## 10 HH02_01_E    적격대상여부  double        0
## # … with 438 more rows
…
