Chapter 13 Data Wrangling- Text Handling | DsPubs with R tutor book
…
자 이제 ID가 1인 사람을 관찰해 보겠습니다. 2008년 3월과 2008년 7월에 용접흄에 노출되었네요. 좀 보기 편해졌습니다.

exp4 %>%
  filter(id ==1)

## # A tibble: 24 × 4
##       vo sdate         id exposure                          
##    <dbl> <chr>      <dbl> <chr>                             
##  1 48064 2008-03-21     1 망간및그무기화합물함유제제        
##  2 48064 2008-03-21     1 산화아연(흄)함유제제              
##  3 48064 2008-03-21     1 크롬과그무기화합물(수용성 6가크롬)
##  4 48064 2008-03-21     1 소음                              
##  5 48064 2008-03-21     1 용접흄                            
##  6 48065 2008-03-21     1 망간및그무기화합물함유제제        
##  7 48065 2008-03-21     1 산화아연(흄)함유제제              
##  8 48065 2008-03-21     1 크롬과그무기화합물(수용성 6가크롬)
##  9 48065 2008-03-21     1 소음                              
## 10 48065 2008-03-21     1 용접흄                            
## # … with 14 more rows
…
