Chapter 5 Data Manipulation | DsPubs with R tutor book
…
select안에서는 ” ” 안에 문자가 변수 명으로 인식됩니다. 이것은 매우 중요한 개념입니다. 아래의 두 코드는 같은 결과를 줍니다. 외부에서 문자를 입력 받았어도, 바로 적용할 수 있다는 의미 입니다.

kwcs %>% select("job1")

## # A tibble: 50,538 × 1
##         job1
##    <dbl+lbl>
##  1   1 [1개]
##  2   1 [1개]
##  3   1 [1개]
##  4   1 [1개]
##  5   1 [1개]
##  6   1 [1개]
##  7   1 [1개]
##  8   1 [1개]
##  9   1 [1개]
## 10   1 [1개]
## # … with 50,528 more rows

kwcs %>% select(job1)

## # A tibble: 50,538 × 1
##         job1
##    <dbl+lbl>
##  1   1 [1개]
##  2   1 [1개]
##  3   1 [1개]
##  4   1 [1개]
##  5   1 [1개]
##  6   1 [1개]
##  7   1 [1개]
##  8   1 [1개]
##  9   1 [1개]
## 10   1 [1개]
## # … with 50,528 more rows
…
