Chapter 9 Tables for public health summary | DsPubs with R tutor book
…
9.3 select variables, and table 1

You can select variable after data manipulation, we created sleepgp, shortReturn, njob, sexgp, edugp, empgp in chapter of Data manipulation and Tables for pulblic health 1. Then, those selected variables will categorized into stratas, catVars, conVars.

stratas  = c("sleepgp")
catVars = c("wwa1gp", "shortReturn","shiftWork" , "njob", "sexgp",  "edugp", "empgp")
conVars = c("AGE","satisfaction")

The function of tabf() create cross table by htmlTable(). tabf() function needs data1 as data to be used for table, stratas as group variables in the head, catVars as categorical variables, conVars = continues variables.

tab1 = tabf(dat1=dat1, stratas = stratas, catVars = catVars, conVars = conVars)
tab1

## # A tibble: 22 × 5
##    variables     values           `0.non distrubance` `1.sleep disturb…` p.value
##    <chr>         <chr>            <chr>               <chr>              <chr>  
##  1 "wwa1gp"      Never            12222 (94.7%)       684 (5.3%)         "<0.00…
##  2 ""            Rarely           12316 (94.5%)       714 (5.5%)         ""     
##  3 ""            Sometimes        9112 (90.3%)        981 (9.7%)         ""     
##  4 ""            Often            3456 (82.8%)        717 (17.2%)        ""     
##  5 ""            Always           634 (70.0%)         272 (30.0%)        ""     
##  6 "shortReturn" non short return 36183 (92.5%)       2927 (7.5%)        "<0.00…
##  7 ""            short return     1557 (77.9%)        441 (22.1%)        ""     
##  8 "shiftWork"   non shift work   35056 (91.9%)       3073 (8.1%)        "<0.00…
##  9 ""            shift work       2684 (90.1%)        295 (9.9%)         ""     
## 10 "njob"        one-job          37471 (91.9%)       3317 (8.1%)        "<0.00…
## # … with 12 more rows
…
