Chapter 14 Web Scraping | DsPubs with R tutor book
…
Find source and nodes

Now I try to find table nodes from url

tab <- h %>% html_nodes("table")

tab2 <- tab [[2]] %>% html_table

## # A tibble: 234 × 6
##    `Location[a]...1` `Location[a]...2` `Cases[b]` `Deaths[c]` `Recov.[d]` Ref.  
##    <chr>             <chr>             <chr>      <chr>       <chr>       <chr> 
##  1 <NA>              World[e]          43,895,968 1,165,455   29,727,057  [4]   
##  2 <NA>              United States[f]  8,879,060  230,176     5,469,963   [13]  
##  3 <NA>              India             7,946,429  119,502     7,201,070   [14]  
##  4 <NA>              Brazil            5,440,903  157,981     4,904,046   [15][…
##  5 <NA>              Russia[g]         1,547,774  26,589      1,158,940   [17]  
##  6 <NA>              France[h]         1,198,695  35,541      112,716     [18][…
##  7 <NA>              Spain[i]          1,116,738  35,298      No data     [20]  
##  8 <NA>              Argentina[j]      1,116,596  29,730      921,331     [22]  
##  9 <NA>              Colombia          1,033,218  30,565      932,882     [23]  
## 10 <NA>              United Kingdom[k] 917,575    45,365      No data     [25]  
## # … with 224 more rows
…
